…
    ## `summarise()` has grouped output by 'Group', 'EGFR_Status'. You can override
    ## using the `.groups` argument.

``` r
n_cts_per_group
```

    ## # A tibble: 60 × 6
    ## # Groups:   Group, EGFR_Status [6]
    ##    Group   EGFR_Status customclassif No.CT_Nuclei No.Total_Nuclei Percent_CT_N…¹
    ##    <chr>   <chr>       <chr>                <int>           <int>          <dbl>
    ##  1 het GFP Null        Astrocytes              64            9279          0.690
    ##  2 hom GFP Null        Astrocytes             378           13137          2.88 
    ##  3 hom TDT Null        Astrocytes             270           10680          2.53 
    ##  4 het TDT WT          Astrocytes            1989           12208         16.3  
    ##  5 wt GFP  WT          Astrocytes             435            7958          5.47 
    ##  6 wt TDT  WT          Astrocytes             581            8044          7.22 
    ##  7 het GFP Null        Dividing              1440            9279         15.5  
    ##  8 hom GFP Null        Dividing              1667           13137         12.7  
    ##  9 hom TDT Null        Dividing              1423           10680         13.3  
    ## 10 het TDT WT          Dividing              1809           12208         14.8  
    ## # … with 50 more rows, and abbreviated variable name ¹​Percent_CT_Nuclei
…
    ## `summarise()` has grouped output by 'customclassif'. You can override using the
    ## `.groups` argument.

``` r
n_cycles_per_ct
```

    ## # A tibble: 30 × 5
    ## # Groups:   customclassif [10]
    ##    customclassif      Phase No.CT_Phase_Nuclei No.Total_CT_Nuclei Percent_CT_P…¹
    ##    <chr>              <chr>              <int>              <int>          <dbl>
    ##  1 Astrocytes         G1                  3333               3717          89.7 
    ##  2 Astrocytes         G2M                  115               3717           3.09
    ##  3 Astrocytes         S                    269               3717           7.24
    ##  4 Dividing           G1                  1225               8880          13.8 
    ##  5 Dividing           G2M                 4215               8880          47.5 
    ##  6 Dividing           S                   3440               8880          38.7 
    ##  7 Endothelial        G1                   555                583          95.2 
    ##  8 Endothelial        G2M                    9                583           1.54
    ##  9 Endothelial        S                     19                583           3.26
    ## 10 Inhibitory neurons G1                  4561               5086          89.7 
    ## # … with 20 more rows, and abbreviated variable name ¹​Percent_CT_Phase_Nuclei
…
