…
    ## `summarise()` has grouped output by 'Group', 'Condition'. You can override
    ## using the `.groups` argument.

``` r
n_cts_per_group
```

    ## # A tibble: 42 × 6
    ## # Groups:   Group, Condition [6]
    ##    Group  Condition customclassif      No.CT_Nuclei No.Total_Nuclei Percent_CT…¹
    ##    <chr>  <chr>     <chr>                     <int>           <int>        <dbl>
    ##  1 F+ GFP Null      Dividing                    856            6420         13.3
    ##  2 FF GFP Null      Dividing                   1400            9287         15.1
    ##  3 FF Td  Null      Dividing                   1275            9363         13.6
    ##  4 F+ Td  WT        Dividing                   1129            7632         14.8
    ##  5 WT GFP WT        Dividing                    884            6433         13.7
    ##  6 WT Td  WT        Dividing                    962            7314         13.2
    ##  7 F+ GFP Null      Excitatory neurons         1608            6420         25.0
    ##  8 FF GFP Null      Excitatory neurons         2981            9287         32.1
    ##  9 FF Td  Null      Excitatory neurons         2915            9363         31.1
    ## 10 F+ Td  WT        Excitatory neurons         1800            7632         23.6
    ## # … with 32 more rows, and abbreviated variable name ¹​Percent_CT_Nuclei
…
    ## `summarise()` has grouped output by 'customclassif'. You can override using the
    ## `.groups` argument.

``` r
n_cycles_per_ct
```

    ## # A tibble: 21 × 5
    ## # Groups:   customclassif [7]
    ##    customclassif            Phase No.CT_Phase_Nuclei No.Total_CT_Nuclei Percen…¹
    ##    <chr>                    <chr>              <int>              <int>    <dbl>
    ##  1 Dividing                 G1                   537               6506   8.25  
    ##  2 Dividing                 G2M                 3715               6506  57.1   
    ##  3 Dividing                 S                   2254               6506  34.6   
    ##  4 Excitatory neurons       G1                 12919              13063  98.9   
    ##  5 Excitatory neurons       G2M                   11              13063   0.0842
    ##  6 Excitatory neurons       S                    133              13063   1.02  
    ##  7 Inhibitory neurons       G1                  7179               7582  94.7   
    ##  8 Inhibitory neurons       G2M                   36               7582   0.475 
    ##  9 Inhibitory neurons       S                    367               7582   4.84  
    ## 10 Intermediate progenitors G1                  4061               4166  97.5   
    ## # … with 11 more rows, and abbreviated variable name ¹​Percent_CT_Phase_Nuclei
…
